// Jest Snapshot v1, https://goo.gl/fbAQLP

exports[`Test Cities Model Page Cities 1`] = `
<div>
  <div
    class="m-3"
  >
    <Button
      active={false}
      as={
        Object {
          "$$typeof": Symbol(react.forward_ref),
          "propTypes": Object {
            "innerRef": [Function],
            "onClick": [Function],
            "replace": [Function],
            "target": [Function],
            "to": [Function],
          },
          "render": [Function],
        }
      }
      disabled={false}
      to="/search-cities"
      variant="success"
    >
      Search for cities
    </Button>
  </div>
  <DataTable
    columns={
      Object {
        "avg_temp": Object {
          "display": "avg temp",
          "range": true,
        },
        "name": Object {
          "display": "name",
          "range": true,
        },
        "pop": Object {
          "display": "population",
          "range": true,
        },
        "pop_density": Object {
          "display": "population density",
          "range": true,
        },
        "state": Object {
          "display": "state",
          "range": true,
        },
        "view": Object {
          "display": "view",
          "noFilter": true,
          "noSort": true,
        },
      }
    }
    filter={Object {}}
    items={Array []}
    onFilterApply={[Function]}
    onFilterChange={[Function]}
    onSort={[Function]}
    rowMapper={[Function]}
    sort={Object {}}
  />
  <div
    className="d-flex justify-content-center"
  >
    <Paginator
      onPageChange={[Function]}
      pagination={
        Object {
          "next_page": null,
          "page": 1,
          "per_page": 20,
          "prev_page": null,
          "total_items": 0,
          "total_pages": 1,
        }
      }
    />
  </div>
</div>
`;
